vhdl xil_defaultlib "../../../../spi_ctrl.srcs/sources_1/ip/jesd204_phy_0_1/ip_0/jesd204_phy_0_gt/example_design/jesd204_phy_0_gt_tx_startup_fsm.vhd" 
vhdl xil_defaultlib "../../../../spi_ctrl.srcs/sources_1/ip/jesd204_phy_0_1/ip_0/jesd204_phy_0_gt/example_design/jesd204_phy_0_gt_rx_startup_fsm.vhd" 
vhdl xil_defaultlib "../../../../spi_ctrl.srcs/sources_1/ip/jesd204_phy_0_1/ip_0/jesd204_phy_0_gt_init.vhd" 
vhdl xil_defaultlib "../../../../spi_ctrl.srcs/sources_1/ip/jesd204_phy_0_1/ip_0/jesd204_phy_0_gt_cpll_railing.vhd" 
vhdl xil_defaultlib "../../../../spi_ctrl.srcs/sources_1/ip/jesd204_phy_0_1/ip_0/jesd204_phy_0_gt_gt.vhd" 
vhdl xil_defaultlib "../../../../spi_ctrl.srcs/sources_1/ip/jesd204_phy_0_1/ip_0/jesd204_phy_0_gt_multi_gt.vhd" 
vhdl xil_defaultlib "../../../../spi_ctrl.srcs/sources_1/ip/jesd204_phy_0_1/ip_0/jesd204_phy_0_gt/example_design/jesd204_phy_0_gt_sync_block.vhd" 
vhdl xil_defaultlib "../../../../spi_ctrl.srcs/sources_1/ip/jesd204_phy_0_1/ip_0/jesd204_phy_0_gt.vhd" 
vhdl xil_defaultlib "/home/lu/Desktop/adc_dac/adc_dac_all/spi_ctrl/spi_ctrl.srcs/sources_1/ip/jesd204_phy_0_1/jesd204_phy_0_sim_netlist.vhdl" 

nosort
