;******************************************************************
;** AMC7823 Initialization                                        **
;******************************************************************
;
; This .COE file specifies initialization values for a block
; memory of depth=32, and width=32.
; Values are specified in hexadecimal format:
; 31..27 = don't care
; 26..24 = start address  
; 23..22 = don't care
; 21..16 = end address
; 15..0  = data
;
; Loading from ROM stops when address ADDR_MAX_WR has been processed.
; therefore this register must be the last entry in this file.
;
memory_initialization_radix=16;
memory_initialization_vector=
000AFFFF,
010A0000,
010B8080,
010D8000,
010E0B16,
010F0A08,
01100B16,
01110A08,
01120C18,
01130AF1,
01140C18,
01150AF1;
