// Mem file initialization records.
//
// SW Build 1756540 on Mon Jan 23 19:11:19 MST 2017
// Vivado v2016.4 (64-bit)
// Copyright 1986-2016 Xilinx, Inc. All Rights Reserved.
// Created on Sunday March 25, 2018 - 07:09:50 pm, from:
//
//     Map file     - /home/lu/Desktop/adc_dac/adc_dac_all/spi_ctrl/spi_ctrl.srcs/sources_1/bd/Jesd204_microblaze/Jesd204_microblaze.bmm
//     Data file(s) - /home/lu/Desktop/adc_dac/adc_dac_all/spi_ctrl/spi_ctrl.srcs/sources_1/bd/Jesd204_microblaze/ip/Jesd204_microblaze_microblaze_0_0/data/mb_bootloop_le.elf
//
// Address space 'Jesd204_microblaze_i_microblaze_0.Jesd204_microblaze_i_microblaze_0_local_memory_lmb_bram_128K_1_ADDR_SPACE', bit lane [31:0].
//
// Bus width = 32 bits, number of bus blocks = 1.

@00000000
    B8000000
